[
    {
        "title": "男孩和金毛玩耍时突然被扑咬 女主人冲出拿棍子打狗",
        "author": "青梦白话",
        "thumbnail": "http://videoimg.ws.126.net/cover/20240109/OFYTLdQ6P_1stframe.jpg",
        "videoPlayUrl": "http://flv0.bn.netease.com/ea91fdb26fc28ceb4bcec2e31ca712b3137ca4b15626d6105f3ec6654979c308da556f62b65d90df120616ef08cc7293b3744b1709ad8260ca3ae5eba6f8a1ec7e812d24b2978f409a6aa368057af9eb9d3daecf09f92c25998149a51a81f47f8ca61769c7158e069b21203e259ddf9f33e3fec11a7198c3.mp4"
    },
    {
        "title": "法师回归",
        "author": "居委会首席大妈",
        "thumbnail": "http://videoimg.ws.126.net/cover/20231105/76yFB0fST_1stframe.jpg",
        "videoPlayUrl": "http://flv0.bn.netease.com/ea91fdb26fc28cebd706091dd0473fcd4a1870c209e31d4486b23d6cfcbd6dfc995ad537062916c1deb4060aad7d7403ed73a8a042447144ed79f89dd6fa39d0c2404cbb6013896a194090f939084f772c0e3699d5dea1c70a5eda1c8754f1f1d6407bcc18bbaec3786cf6116bd1acfb50c668dce24e8ee7.mp4"
    },
    {
        "title": "尔滨大爷卖烤地瓜统统5块钱 专卖南方小土豆还给配勺",
        "author": "薪点看看",
        "thumbnail": "http://videoimg.ws.126.net/cover/20240109/uS6vhJdXl_1stframe.jpg",
        "videoPlayUrl": "http://flv0.bn.netease.com/ea91fdb26fc28ceb948e67081991c7f61c9e1a9e26536a6f0661004e8ed1e8089b1a60e5113970483b624279d9879472fde0e8056f5df37607adbadc993e82f8dd1058b3a085438b3634b30948a267bddd374df5ccbe88a61f37402920f2564eae42b6e5b59c2bd68ed4512704f66f63282bc0daf826e9f5.mp4"
    },
    {
        "title": "好一件“乌蒙衫” 省事又暖和，爸爸给萌娃穿衣服，妈妈：想知道脱的时候要转几圈。",
        "author": "大吵小闹",
        "thumbnail": "http://videoimg.ws.126.net/cover/20240108/BWdSs9qiQ_1stframe.jpg",
        "videoPlayUrl": "http://flv0.bn.netease.com/ea91fdb26fc28cebd87f7a2576f7cc378620c5933e1c382ee33d2dd34c86de38a2ca1c9e0d08b472e8f6687a4bb23a4469b2700b7a5d7e822e5ad567bb13521757ce8653edfa797c2f9a94ff2f95366ee1491e7bb54cafe9e54afcc999baab0d88bb2ea362ba199a02ce7ab3af9749a6f9515dc9bae5294d.mp4"
    },
    {
        "title": "杨总是有家室的，可我就是他家室啊！",
        "author": "罐罐追影",
        "thumbnail": "http://videoimg.ws.126.net/cover/20240104/Kl6GTkWq9_1stframe.jpg",
        "videoPlayUrl": "http://flv0.bn.netease.com/ea91fdb26fc28ceb3436c33940d45e0db01e210d7e2b9c7a8d5567050ffbb6620dbaf3ae387d42965d8a723430ff5e1efe8de42f1ee6c7c139f2900493c143297d1136826946d6b2a9372d4cc9c21107e36899b41b8a854085f27f5dc3598e8692c5d9a5b4660b1f1a42a18304002dd6fe0c6b5289cdff9e.mp4"
    },
    {
        "title": "狗妈妈带着狗崽，坐在火炉边烤火取暖，网友：这是妈妈教的规矩",
        "author": "就成都",
        "thumbnail": "http://videoimg.ws.126.net/cover/20240109/DZ4GsiM8S_1stframe.jpg",
        "videoPlayUrl": "http://flv0.bn.netease.com/ea91fdb26fc28ceb52bb51f7ac9399c9599b0eb8debd9b88494c70eb743ce57ad4c1c6b120c07c79027eb986093c03f02a2ddf67f9bcb561ff719b96c8362b76dc8eee5887e9c9f5f6ca02c2fb35d92f6da2e5b7842b6a5409e0065d2954f5e74ff9de8a6c6be5b3ec138f02313f7ae76fd27a48e4abe056.mp4"
    },
    {
        "title": "哈尔滨冰雪大世界又出新花样了，这也太太太太拉风了吧！",
        "author": "下班乐翻天",
        "thumbnail": "http://videoimg.ws.126.net/cover/20240109/Y3G5yAXt8_1stframe.jpg",
        "videoPlayUrl": "http://flv0.bn.netease.com/ea91fdb26fc28ceb66befb626a1ff495ea4100e1f45a589f7eafe5b8be9a3078b1c8826ff489f94952628243533eaf19ece9abc974fc949b6d960c08641a43daff8136f9de08f545b06f619c8e8fc68cec4a39ce73311d8283ad987ceeaf45995185d08a6537b6d507671208ee3178ca1f1fa1f902c8a3b7.mp4"
    },
    {
        "title": "小伙暴力推开大铁门，过路女子停留惨遭夺命重压，屎都被压出来了",
        "author": "小光侃世界",
        "thumbnail": "http://videoimg.ws.126.net/cover/20240110/TeaX10wiR_1stframe.jpg",
        "videoPlayUrl": "http://flv0.bn.netease.com/ea91fdb26fc28cebec324a9bd8b0270c617066d50ba1572788df48bb81c0e295b73367347534d63ab8b35e407332ec4991b6fe985c2301c331d1aa9311de4e2a8dc602ccc2413a118dc4732e0b4659dfad247f2feb1279d10a40ab1949956f628575ef9f52b305375f18a2a0c9650367a7aef52573664385.mp4"
    },
    {
        "title": "小老鼠在房子里乱窜，工人手持钉枪射击，鼠鼠：我招谁惹谁了",
        "author": "就成都",
        "thumbnail": "http://videoimg.ws.126.net/cover/20240110/f6I3oM5vn_1stframe.jpg",
        "videoPlayUrl": "http://flv0.bn.netease.com/ea91fdb26fc28cebab101968172112fff3e26ca8732353ac11b54d7cd9c9c963739c47333ff206182f6dd1a33d67acea91d368b63fc875af62ca6e95de1308d85be5284870c1899aaf6057293019791e71366394d23c2be22e9a0c18f057c1843c933c2c97a95c696186657a865cc2401669ec3e43325977.mp4"
    },
    {
        "title": "缅军逃兵被同盟军抓获，自称带着重要信息，可以为大家“带路”",
        "author": "得米看看",
        "thumbnail": "http://videoimg.ws.126.net/cover/20240108/GrVFKaLqO_1stframe.jpg",
        "videoPlayUrl": "http://flv0.bn.netease.com/ea91fdb26fc28ceb46e5c07902f117e5f404f3c3adfb18028c077def19f4e7f3852f554a22c595fb4c60720159a67ab399fba16f479311baac57f72b8105ff13dfa08a485ea83ef21f1579758d8d1c1e793d1707a26195571d627acfcfcf4310a18ce642fb5ee7b160e612262d268929c3ae7e6d06caa1e4.mp4"
    },
    {
        "title": "SUV车主强行加塞，先撞前车后又撞上一宝马！一番操作看呆众人",
        "author": "小慧大咖说",
        "thumbnail": "http://videoimg.ws.126.net/cover/20240109/Usp8XtPSi_1stframe.jpg",
        "videoPlayUrl": "http://flv0.bn.netease.com/ea91fdb26fc28ceb9378fdfff344eca67ea85620d8ae73aea611d188b01f532d96203357f575963ad66d3a9406e6d8cab26f7d484d65d0e3afe4ec6dea504e528502a065d2482aee5e89b06c8584e251598e64e5869bdb41d5a06feece14c64b2efcd7a9701eace986b419d3a6e5b07098bc78720c1aab88.mp4"
    },
    {
        "title": "男子不听劝阻闯入女生宿舍 被宿管制止后怒推宿管阿姨",
        "author": "青梦白话",
        "thumbnail": "http://videoimg.ws.126.net/cover/20240110/Mfz6CGZwr_1stframe.jpg",
        "videoPlayUrl": "http://flv0.bn.netease.com/ea91fdb26fc28ceb225fce560f26eb579155420e292aeabd45a230bbb1584adc0d48244c78af828a3794f6472d82385c4038a6a36bea550eeedee40f65aed5b1ee778aff2604dae471789ac9c9f280888f90fd41b2c5a7f438705fc2036f78d0b19c36f0b5a15d63aed189bd805af143c423e486e08062d2.mp4"
    },
    {
        "title": "1月10日（报道），哈尔滨爆火后压力给到河南文旅，网友纷纷喊话：快亮家底，用大招啊！",
        "author": "大象新闻",
        "thumbnail": "http://videoimg.ws.126.net/cover/20240110/oAUfrQ1L7_1stframe.jpg",
        "videoPlayUrl": "http://flv0.bn.netease.com/ea91fdb26fc28cebb249361e3d0b203d1fd2ea2ead2465713b187cee148b20d23f5fe66d21f6cf327973ac8204a0c7be7dea178bf18bd8096fe5b0d3b8eab3545deb93ad4c80a88a72d7b303f37ac8f18a63bdba13f128106ca8b77876738a309e986af0c0d45ced236c9d39f9dab8c3fb3ce0c41d6ae9bc.mp4"
    },
    {
        "title": "两名女子玩高空荡秋千，绳索放下去那一刻看着都害怕。",
        "author": "上思县融媒体中心",
        "thumbnail": "http://videoimg.ws.126.net/cover/20240110/X6mRbuSds_1stframe.jpg",
        "videoPlayUrl": "http://flv0.bn.netease.com/ea91fdb26fc28ceb7dab6c9202e267b21656f124c3597d2c8ee12400c4d66f6170d23127205a377c9391d58f212ef3ea8ab2d77db8e94dc5ab866068564f616df07de931ed8d4fcf02f2b52dd2cb0d2dbee40b01a37bca43919be930a12e0135d18b862773e04e28e38c7697673a4b9e293f7db16b799132.mp4"
    },
    {
        "title": "外媒报道哈尔滨，说哈尔滨拉高了旅游业的门槛！什么意思？",
        "author": "记者李喜喆",
        "thumbnail": "http://videoimg.ws.126.net/cover/20240109/Z7egEm1kC_1stframe.jpg",
        "videoPlayUrl": "http://flv0.bn.netease.com/ea91fdb26fc28cebb59f01d75d0fb295f6ba7be612aa1c860541fb1969c2d32b1d88731d9b49815a17b9e3a1cce4a0948be19fe87d66e0c66a3c85301d179e818cbc906b6eb280156be3e953eb6e1c7d56782ef7d838f055245a3000f214be2bfa2900ec385af5a973aa04c6ebdd7f62aa9769c6423efb9c.mp4"
    },
    {
        "title": "队员和教练切磋，结果一颗球都接不到，网友：这是藏了多少东西",
        "author": "就成都",
        "thumbnail": "http://videoimg.ws.126.net/cover/20230921/pZMacgbXY_1stframe.jpg",
        "videoPlayUrl": "http://flv0.bn.netease.com/ea91fdb26fc28cebab101968172112ff9e7f66ef538a429a8a0215c06e71cdfc7964dd85311a13602515b6915c623a4c21534dad92da7ae6dd8d4091e88927d4ab2024f14c42037920a9821e17d9111efe0320a39547918af389109bbb781ab842cf82bc22364eea6b9b1ab814c51e93f1b78d10af951e11.mp4"
    },
    {
        "title": "男子见有无人机在拍违章，好奇之下拿手机拍摄 结果...",
        "author": "上思县融媒体中心",
        "thumbnail": "http://videoimg.ws.126.net/cover/20240109/QVWar3F7J_1stframe.jpg",
        "videoPlayUrl": "http://flv0.bn.netease.com/ea91fdb26fc28cebccd1585072d94c17e51170463e1d11ed5f1a6c14bafda1dce2b1e3fb5817327fc1cda64210f5b66c14bd9fe01949fd5f01f9c67d7799d63564f04dedf723778e5b47bfb33e52f8fe6a80db5311295ef49b8a1671b3e93cbcec11dd9f9e33b14fa8757add58a4c6e494d487369f3911fd.mp4"
    },
    {
        "title": "什么！我的闪婚⽼公竟然是总裁？！！",
        "author": "立夏有力",
        "thumbnail": "http://videoimg.ws.126.net/cover/20231024/rxv5ZizaH_1stframe.jpg",
        "videoPlayUrl": "http://flv0.bn.netease.com/ea91fdb26fc28ceb9ca2421a8263cac1c100e14245cf9c86b06c2ea8666e3803ac99bef54181d870284383a5f9cb59b7dca49e55d9ac80c6def5cfb036db9423ece5c47f10c75a3b5f17a7d084da6eb439fe3c303361c4d586f0d0eae4ad5388725d9002694011f06423c1cff3505745dd158593460dbe84.mp4"
    },
    {
        "title": "疑似哈马斯扎堆聚会，被以军火箭炮袭击，内部视频被曝光",
        "author": "安安看看",
        "thumbnail": "http://videoimg.ws.126.net/cover/20240109/t4RGkycbh_1stframe.jpg",
        "videoPlayUrl": "http://flv0.bn.netease.com/ea91fdb26fc28cebe709179cef6ad3994c22c5482b37c2ca4b01e5995dcb45df42b0ac37bd57041b52539a7666a04bf60b99c50c90a63e54af9f9e217cf5b70965ee2983d43746d3d3bd2d6b283dcdaac74e886893d09b180b045d93aaa945cd13b11dc53627b313595a09396475c8ed149ce39065cae63c.mp4"
    },
    {
        "title": "东北虎冲着女生翻肚皮，东北金渐层什么时候这么好说话了",
        "author": "早起观察",
        "thumbnail": "http://videoimg.ws.126.net/cover/20240102/yvip6bjn9_1stframe.jpg",
        "videoPlayUrl": "http://flv0.bn.netease.com/ea91fdb26fc28ceb5654c679d20611cbd5ba6334b035a3bbc81e1ed75a6f11a63463cd7ad6afa6149bfa2a63da7dfccacc678bf6aedd565cd4dfc13440702f5567123cfdc315683d026dc32b59d4674b64c29bd98ab4d162a7406717a8368ed3edeaa912a6c86e3220512bc3a60dffb0dd2262d1c9a29f02.mp4"
    }
]