[
    {
        "title": "男子吐槽国产新能源设计，机械钥匙藏里面，没电了怎么打开门呢",
        "author": "树洞看看看",
        "thumbnail": "http://videoimg.ws.126.net/cover/20240110/UEKrGVbkc_1stframe.jpg",
        "videoPlayUrl": "http://flv0.bn.netease.com/ea91fdb26fc28cebd3c6afebe824ee452a54443ec5dc0dcd596cb5704cfb6476fc4aceba753b86e3708dbda63f73cc73c7f4eddeb1ee0097d6ac74321c06c5f0b552d9cd1f4addf38a00994a76186c5ac3f7506cc619761186b728c91fa7fad35494c4ff4180d690196d9a6c09fe02470d812b616c176096.mp4"
    },
    {
        "title": "头皮发麻！流浪汉地铁站睡觉 被叫醒一掀被跑出一窝老鼠",
        "author": "凌晨看看",
        "thumbnail": "http://videoimg.ws.126.net/cover/20240110/YiaI8qhdl_1stframe.jpg",
        "videoPlayUrl": "http://flv0.bn.netease.com/ea91fdb26fc28ceba0792970268f7101a55f977b0188f052321e8c8787fcd104fcf0d1f6c79df5807c4dd1c1ad6f80fa53b1e9e22f3d68125c1db80cac48622a9a71ba79f8a75cd3f458a5e4aebaec3d98c7420eeed638732d7cce9cf429e8a3308b1fc91a9df978f6b3c6ebe06ca73a33c2ddcd532e5a02.mp4"
    },
    {
        "title": "差一微米？？你知道微米是什么概念吗",
        "author": "萌妹观影",
        "thumbnail": "http://videoimg.ws.126.net/cover/20240105/siBH59LZ2_1stframe.jpg",
        "videoPlayUrl": "http://flv0.bn.netease.com/ea91fdb26fc28ceb0e2f6999e6b334cbace3cbafcfe82c0586702d0e283c77e4325f2593bcb4a84aa57de0bd40081f67fa818f378b0edd9c72eaac32db4dcf6af422bfad764c04fc42b266911eb59d9d14a763e66b3678fac2f43daa31644bad4056d1ac278a0af77283c61a98807621384b5acfa61708f5.mp4"
    },
    {
        "title": "老公刚回来，享受一下二人世界，结果尴尬了！",
        "author": "大洋二然小姐妹",
        "thumbnail": "http://videoimg.ws.126.net/cover/20240103/1s8pwNyI6_1stframe.jpg",
        "videoPlayUrl": "http://flv0.bn.netease.com/ea91fdb26fc28cebf10f4367eaecfb03a7c53d5256247d2866624a763e226b0d663437b0ad45da5005ab8bbf59475f39294d1a4ab5d7ef3d18082fce7c63bfa4c589e1d9a8aca4d0a7027d49fac51e9c73353b622a150414e49ae974243256e1a66a08c7f86aa5493bb21bee78809997e0526e8db912ab5f.mp4"
    },
    {
        "title": "跟着富婆走，这可少奋斗几十年呢",
        "author": "鱼饼没有鱼",
        "thumbnail": "http://videoimg.ws.126.net/cover/20240105/u2n8F1hXd_1stframe.jpg",
        "videoPlayUrl": "http://flv0.bn.netease.com/ea91fdb26fc28ceb5d8c8d2371f8cc1064e6e9f2654d5b413d144aa57ade829ee24d098784eb6bda68bcc5c0bf6a84c98583c0f85bfb9217a6c78994f71ceb64dd7076573485b400805787917e4d1f6d82068b449863d10939a4be54ae249c5caddbdfaf75207bc818c029fea4e3c0e276906eb00c2bcb78.mp4"
    },
    {
        "title": "乱停车堵住商家门口，老板娘拿大锤猛砸，老板娘：让你长长记性",
        "author": "水木看看",
        "thumbnail": "http://videoimg.ws.126.net/cover/20240109/UXL05pJ8Y_1stframe.jpg",
        "videoPlayUrl": "http://flv0.bn.netease.com/ea91fdb26fc28ceb719d2fa3c2c17403c3cb8d1ecfb900a145ba8123bf1516a92679a2995bc7a64d1017049fca7d4c207fee1d60dd18f9c399e9e8a89c9a290b27cd104698228c851664f0fc4fc5a77dea2433099754ecd35a5e43b4b90ef7af82bf315d56631a6b4b70a5c1349d0492730e99272bdda8f3.mp4"
    },
    {
        "title": "第一次跟男友回家，他就想占我便宜，看样子早有预谋！",
        "author": "星君搞笑怪",
        "thumbnail": "http://videoimg.ws.126.net/cover/20230928/1taQgeKfE_1stframe.jpg",
        "videoPlayUrl": "http://flv0.bn.netease.com/ea91fdb26fc28cebe5c175d024d1aa538f8038ed683b1c6c1bdc9c276c1901d0525ef912344d6edbefd78d1ce0d53c98cd40d652a421e9ae54522a40b4f819e832c06c2a3f29db8628ef57bb79682f296e8ac0be4c593cb76a18bf61d4b004cdbe6fffe2be48dc05b7dfb8c5800111879ac46e1c7da501dd.mp4"
    },
    {
        "title": "关键时刻，捏住美国三大命门",
        "author": "晓小说",
        "thumbnail": "http://videoimg.ws.126.net/cover/20231230/d8mfEW0Ij_1stframe.jpg",
        "videoPlayUrl": "http://flv0.bn.netease.com/ea91fdb26fc28cebf9667002ed776dc776c8ccc5edb7e5de5bcd9a0b326b0c7e7da46814fe36331c5a0f9a3f33db58a9e543de873756495f566ccddc1674af6f5b4a29d24c1e87f47085e3797e923f366a7dd4a3aa454fc38d912f1be53d6206fc439ed806891d70e6b4f4cf681beabade8e0734ef9d856a.mp4"
    },
    {
        "title": "韩庚发文推介家乡：今年哈尔滨明年牡丹江可好",
        "author": "爱看新闻",
        "thumbnail": "http://videoimg.ws.126.net/cover/20240110/YOWPpB2A4_1stframe.jpg",
        "videoPlayUrl": "http://flv0.bn.netease.com/ea91fdb26fc28cebc692ded7bbcec456c3a352c7ff4c99db30b17f08818297ae7c2db2ac1df8ccbed26275f0c516dd5e22f32c6c4d85a3cad12d8d3956370baeaac2420aa3966cf3c12571a1f44a803938d4e78db2422410be2b12b1a8c1662f56aa98566c8c80705a3a4042de6262c74665c6a1d603dc04.mp4"
    },
    {
        "title": "忠犬守护司机跨省运输，奔波途中产下12个崽，主人炖鱼又买肉",
        "author": "星晨视频",
        "thumbnail": "http://videoimg.ws.126.net/cover/20231214/3D29ZRb5i_1stframe.jpg",
        "videoPlayUrl": "http://flv0.bn.netease.com/ea91fdb26fc28cebd295594bf568de97a6806664f1f98c1910583b99dbd649023f103c636aa57bd60b9afa2934c312a0ccb1c09c0380f2e52dce72acf48f63b650e64aa8938ae430e09494243e0f6334c5a3f9261fe9e51767f96373431cedbaf86ff443dd0d057a94c47bc0b23fff74e5479a9b027cb2c3.mp4"
    },
    {
        "title": "赴华支援的200名乌克兰专家，如今待遇怎么样？我国做法让人贴心",
        "author": "纪实影像馆",
        "thumbnail": "http://videoimg.ws.126.net/cover/20231205/rzGSwq94R_1stframe.jpg",
        "videoPlayUrl": "http://flv0.bn.netease.com/ea91fdb26fc28ceb49c85ea8f24d68084e6d38bcdc61b48d37ecbc35c2ccbc7b39a577f3a05bae3bd67ba2f95ee150ffc4910d4970af258771d5549a5188f6b0261b4571714324d1c15f1ee352763c21d46fe782a58832544e8aef8f9d8acad14f7213c47de00267a226c4705945f9d3a1401edc9b1daccc.mp4"
    },
    {
        "title": "怎么说话这么凶？欠你的啊",
        "author": "勇哥热剧社",
        "thumbnail": "http://videoimg.ws.126.net/cover/20240104/v31AOEMBy_1stframe.jpg",
        "videoPlayUrl": "http://flv0.bn.netease.com/ea91fdb26fc28cebcac7f4b3ef8c4afdac196ee9e426579ce8555ffcb4c19df37933825f92516b4471c8851ba5b451aaee2af8d555dd4ae1a998f28d71b11eacfdcc39500255366dd6d9fddd3d64ea1d5b784dbf4aee923b6a1c9a345a288ee56c47f41ff6e7b3bac2522df2d6dde36d36cf2e5852e8073c.mp4"
    },
    {
        "title": "钢管吊砖头，网友见状议论纷纷，网友：涉嫌违规作业",
        "author": "就成都",
        "thumbnail": "http://videoimg.ws.126.net/cover/20240111/UOidrna5q_1stframe.jpg",
        "videoPlayUrl": "http://flv0.bn.netease.com/ea91fdb26fc28ceb46b2e4ca16c6414b36fc20048a212f1aedc1fc69300fc6e3ce22a4dfdb29c7bf90048362cb2e214fd0f092258e98f699a20e28986c8b6515a27661ade4f68df4e79fe21bb7446cd1b8f28ab5ebdf92ad6ab4b0cae73e35117fad0056fe3a47a46e9521bfc7626be6d9da9cbdfede41d4.mp4"
    },
    {
        "title": "外甥女不舍得舅舅回家，舅舅蹑手蹑脚偷跑的样子像极了小贼",
        "author": "理想之声",
        "thumbnail": "http://videoimg.ws.126.net/cover/20240109/1YicmMJq3_1stframe.jpg",
        "videoPlayUrl": "http://flv0.bn.netease.com/ea91fdb26fc28ceb081c5a6a677b1b3a313b1a95b5cfdd847d41b974a521f87ddf198ba541f108a326a649f20ae1f5de76fa90eecdccf0db5f717a6ca0d8449351c784200bc359aa769827d17e1b9e665e8c7f5335fdfa871fe994bac0c94d115ea6b468f04f1e24b139ef29b941752c762a286535076980.mp4"
    },
    {
        "title": "没见过脾气这么大的狗子",
        "author": "旺仔很忙",
        "thumbnail": "http://videoimg.ws.126.net/cover/20230717/bNuw1r9B2_1stframe.jpg",
        "videoPlayUrl": "http://flv0.bn.netease.com/ea91fdb26fc28ceba74eee4b546ff38d41cd060f3423378c02b683cacab1061079e42f2baa28af24fd498f55bee24dc6e282b0a5c6b208feabc5f3831c985338dd92bb56f49a4584d92daaf68ab0a9e4f313dbb502ffc1bd30f388a2064c6ca8f3828e42c951d613af8112f3b10b53193ea63939ada0fac9.mp4"
    },
    {
        "title": "妈妈调整滑雪圈，把孩子放旁边滑道，没注意身后危险即将来临",
        "author": "青岛资讯官方",
        "thumbnail": "http://videoimg.ws.126.net/cover/20240110/4ZasHSwTr_1stframe.jpg",
        "videoPlayUrl": "http://flv0.bn.netease.com/ea91fdb26fc28cebdb28e801d6298fe60bef0adfbad006108622d23cf9e99b9456826d5fd5de751d8f90e14a9252fd4f18afa741a89d43b38804eca3613a8ec9b62ec31d4b344bd322fc0efa494bd67382d019eb79d45e5ec859539bb335aaa2bf834c8ea66f413ff1368ec0af5ee85fc5c3d803dc4c2612.mp4"
    },
    {
        "title": "某快递员工直播低价卖商家正常发货的快递发货方上门找到大量证据",
        "author": "聚闻资讯",
        "thumbnail": "http://videoimg.ws.126.net/cover/20240110/tcJy4mIYs_1stframe.jpg",
        "videoPlayUrl": "http://flv0.bn.netease.com/ea91fdb26fc28ceb20e49f9a4f26c05536126aa23fc56c436d23582e5b64022bc60248f450dad67e2d173f60aff4a7423835edf66ac1d95070fcc2c20204a281844be054b3f65c181247303b9e7196cc9f2ecb36139b9bb915bdc4e62d9f56167f04fa10a35d96855dd8f92a9471f351c8906e6f42f58932.mp4"
    },
    {
        "title": "60块钱一碗面一块肉丁？顾客质疑物价贵的离谱！现场视频曝光",
        "author": "阿松侃世界",
        "thumbnail": "http://videoimg.ws.126.net/cover/20240110/Q9fx8su2X_1stframe.jpg",
        "videoPlayUrl": "http://flv0.bn.netease.com/ea91fdb26fc28ceb286aba8a89c1c469d7d1b212d012a11886f1905d2ac6c3ed5035ecac358f1e46589ae488ab1290be1df8e7a5e462fb84294150ddca4d0080ed4034e04f8a3e02dd86b0aecdbb46b926716e8d31ee9847a619525e13eef460032d2ea2a5b63736a90e0f319095fbb66d062f04934aff9c.mp4"
    },
    {
        "title": "男子骑车驶入禁摩区路遇交警，不慌不忙拿出“通行证”",
        "author": "潮闻看看",
        "thumbnail": "http://videoimg.ws.126.net/cover/20240111/EredanKkU_1stframe.jpg",
        "videoPlayUrl": "http://flv0.bn.netease.com/ea91fdb26fc28ceb183f16d8d06ad6ded98f221bd38854d97d578604f87578ffab38925530d9fbdb53860233469313bb9507c3513972bd15c6ff21b94ab5351af1626e84bfed037215e3649e0e0683d7e3e5bc3282828ce5a5bb986186f1e9a97266dbf277aa1bf2caf27122065106de72063311f1855cf1.mp4"
    },
    {
        "title": "老人偷板鸭，第二天被老板路上撞见。喊话：付钱，不然报警。",
        "author": "私家车964",
        "thumbnail": "http://videoimg.ws.126.net/cover/20240110/SuvmA7cQ3_1stframe.jpg",
        "videoPlayUrl": "http://flv0.bn.netease.com/ea91fdb26fc28ceb80f27bd4725d47bd4799e69aca2193a06409116351fc68dfc8a7cacd0f73c21251421e412847c5939d27bdd6b2075ff1849f7bb35ee168ceed5c9811235fab53fb7e1cbf6665ac844c2c9de208e1bbe15beff4baa3597aeedf72e3125df6be30806d261d7e2f792109782b50c148939d.mp4"
    }
]