[
    {
        "title": "台湾同胞有件事情，让全世界都很佩服",
        "author": "主持生小爽",
        "thumbnail": "http://videoimg.ws.126.net/cover/20231219/J8sfGPIcj_1stframe.jpg",
        "videoPlayUrl": "http://flv0.bn.netease.com/ea91fdb26fc28cebc7c483fbc0c61cf86449b884f5c81feaab106b35db50b02e6f3fb5483156a924bec2ee522861b2a49045f22a342ee3619d92d02679a9da12ef5ae9afcbcfe61a786a879cb6481c739ac37f640f5c2e19bbe2b58c068de4ecccd235232c47c60bdb6fa330736f92f5ea2d8c82158cdf13.mp4"
    },
    {
        "title": "湖北武汉一女子网购299元儿童羽绒服，因洗后总结坨不干，剪开发现竟非羽绒",
        "author": "国+社区",
        "thumbnail": "http://videoimg.ws.126.net/cover/20240110/excIOLhzs_1stframe.jpg",
        "videoPlayUrl": "http://flv0.bn.netease.com/ea91fdb26fc28cebb3620df3bb30bc92146cc0db9d2f0b9f08113da89d36df6b6e6aebb2f352387e09f45b8cee24a446649c72eb5d34f57d26ae2ecf19f76fe433fffa64a766ea4b79da7a6bcb3a406f5dd12503552eb0815c64b4ec47ed4c9d677486a3742cd21f3efc7123aaea130b1b4861426c82c4cb.mp4"
    },
    {
        "title": "地铁上一乘客用包包占座，女子径直在中间空隙坐下。",
        "author": "上思县融媒体中心",
        "thumbnail": "http://videoimg.ws.126.net/cover/20240108/4GLTdhOMf_1stframe.jpg",
        "videoPlayUrl": "http://flv0.bn.netease.com/ea91fdb26fc28ceb081c5a6a677b1b3adf745889efa9103b11fd344e8343a4a56bd4f2348d7f35c8d88681d666b81d4f2104c840cad9bf4f65fea5a4254d5b074e2db727b04d6e2fc02b789845c35f2e349d945564a4f10c50759e884f285ffadee19639ebd04b4d56b97c509bbb23ccb39e972b2d3c7510.mp4"
    },
    {
        "title": "主人把社恐小狗的防线拉开小狗尴尬的只能原地打转",
        "author": "江西旅游广播",
        "thumbnail": "http://videoimg.ws.126.net/cover/20240109/A4WPmMDGU_1stframe.jpg",
        "videoPlayUrl": "http://flv0.bn.netease.com/ea91fdb26fc28cebe4dd370c2aa42c886e61dec338783ce8b39178cdd21e00a5a646e9cf3b91d757fd3b9965d963831cc8b51d12a30c00f64f0f83d552b0a50ac04ef894139c69bbc29b643476be3c7bdfe0defaff9ae3bd0a1b9db1f9a2ff8d57c4d96141a3a9841eeaf1cd28c4173273eb0f0598934035.mp4"
    },
    {
        "title": "大叔推着小孩和货车怄气，扒着门大骂司机，司机一发狠俩人都得没",
        "author": "水木看看",
        "thumbnail": "http://videoimg.ws.126.net/cover/20240111/scbfpNu9t_1stframe.jpg",
        "videoPlayUrl": "http://flv0.bn.netease.com/ea91fdb26fc28cebe2b695cffc02c50ce46cc9b71956a1821eca0e9ade43ffffe456d52d57cd4b55e9ad55e8e6776bfbc709a29af91cf21e7bad1f514e6d644e06584ceb0914d79a0a652adaaf5a49506ca8c998aa686c4301c2cee75f581f5d464d04be5101eb3ccbc91156ea04cd132fafeb80217cf655.mp4"
    },
    {
        "title": "近日上海，男子租房留下满屋垃圾后失联，房东：分不清哪个是床哪个是桌子，“请了一个阿姨干了三天 损失五...",
        "author": "河南民生频道",
        "thumbnail": "http://videoimg.ws.126.net/cover/20240110/0aXBwVrdx_1stframe.jpg",
        "videoPlayUrl": "http://flv0.bn.netease.com/ea91fdb26fc28cebe54565df9f4f5a433167b5bff969d055ffed5a5e907b40b8c23529da5978ba1041c9a6457ab11110cbc75dcf63e282641f7fdbe2627e9179fed34a7ef5bc4ba01a3462c782a3acefaa49ee4f13ed5630067834e31edec875036f610f8560f6efaecfcc8948841391cca58b37f1f621eb.mp4"
    },
    {
        "title": "到山上砍根茶树回去，做一个木锤，传承古老手艺，晚上做道卤猪舌",
        "author": "辣木青青",
        "thumbnail": "http://videoimg.ws.126.net/cover/20231220/zaph7ugQN_1stframe.jpg",
        "videoPlayUrl": "http://flv0.bn.netease.com/ea91fdb26fc28cebc7c483fbc0c61cf8615568c2d5b724d49cfbf116953de4fea53aee27343ddde616ea2127b2db703d8ff6f4954bb56e764f5bb5fc4c8edbf4df7f4b2d3025476e249ee32d9e35abb315d8ee2da470e97bd7689ef55fbfe268a455a70964fe1724ec3c23a8edfa2450004da257faf7ec3a.mp4"
    },
    {
        "title": "30岁章泽天净资产600亿清华优秀校友中排行第三",
        "author": "江西旅游广播",
        "thumbnail": "http://videoimg.ws.126.net/cover/20240110/yBn5zxdmO_1stframe.jpg",
        "videoPlayUrl": "http://flv0.bn.netease.com/ea91fdb26fc28ceb727843ab72f4ef399a43e9f193f68a664b606a2ad17820a0055a19df92932b92197d415dd3bbca276f28d6d6cbcc24cbda9ff1b3dc86d3b26dcb0797ef94c33171253241be4980846ab86a2fecd8852f18facac324d4a5ab06d043dbe3e2abbb19d9c99f0ad14205d9a8c118b1f3c57e.mp4"
    },
    {
        "title": "沈阳文旅局长是6g网听劝吧 ",
        "author": "娱乐侠女玉娇龙",
        "thumbnail": "http://videoimg.ws.126.net/cover/20240109/Ra8LHZN2h_1stframe.jpg",
        "videoPlayUrl": "http://flv0.bn.netease.com/ea91fdb26fc28cebd5a26f24f4b774f42a5756f00eb089b55da01d1e4b4eb24ab6be85bb09f0deb494c27c0bea25f1f42f0c88fddafac8c3e98f140b79af2843e48ef5be77cca3046f6c62f3cc114ea1bef79ab79bc164102c2ebdd6f32d8bd12bf82c0ba1672d99a93e3877d15d705be1a746c9cf5ffc8e.mp4"
    },
    {
        "title": "女生与朋友在店内吃冰淇淋，被家长孩子三人轮番抢夺",
        "author": "中国民商新闻",
        "thumbnail": "http://videoimg.ws.126.net/cover/20240110/cM9zkCjI3_1stframe.jpg",
        "videoPlayUrl": "http://flv0.bn.netease.com/ea91fdb26fc28ceb0e23e39c61e606691718f9823876438bd0e6f762e91d398adf83e302f5c6094d6cbc8d603a17d2acce93087710da98ccee38ebef9979cc772651e7c9265fb0eb7d05052986116215f398e2d0fabac45019d6f5daa4ba15622d16eccc68b34ed2f769b30dcfb80698ac278815b69cd423.mp4"
    },
    {
        "title": "张大大到哈尔滨打卡 被粉丝一把抱起举高高合影",
        "author": "星晨视频",
        "thumbnail": "http://videoimg.ws.126.net/cover/20240110/bdVoJ3awW_1stframe.jpg",
        "videoPlayUrl": "http://flv0.bn.netease.com/ea91fdb26fc28ceb45f0d36ef2450819c2e76e0a3e1ba6fb26e1aed86cddaff87cbc04ed675cbfe49ad18c91840f2998fb8ee33937af80de90b1f8caf919ed2666821df627b59ce23869941d8615e8134d90c919b9f3615130ade2cd1ab87fb87f8f07c1658c469f2b96b35bd271bfafdf827d1f11cdb07d.mp4"
    },
    {
        "title": "107国联名逼迫中国，只为销毁一种武器，中国一句话霸气回应",
        "author": "老客谈史",
        "thumbnail": "http://videoimg.ws.126.net/cover/20231226/5qLXu9tCm_1stframe.jpg",
        "videoPlayUrl": "http://flv0.bn.netease.com/ea91fdb26fc28ceb12def7ca18d4ab52c277560e27abfcea480d4c1e3d457b9d54a87471770fec44d8ea8ed6742ee8f9796359e8a3f542116f6ca548fe34aefe80aa60be31c5cf4ec7ffb0d68b52687cf6e8b43e12d038042b685306cc55b948914caea9ed28f55d819882c72718ebe753f9e068ddfc3fb7.mp4"
    },
    {
        "title": "1月10日，四川乐山。网曝一男子将宠物狗带进峨眉山景区，教唆其撕咬猴子还拍摄视频，景区回应",
        "author": "国+社区",
        "thumbnail": "http://videoimg.ws.126.net/cover/20240111/yJM3lXVw6_1stframe.jpg",
        "videoPlayUrl": "http://flv0.bn.netease.com/ea91fdb26fc28cebced64552ff9a48e179905171482d897dc5005a0c922c72f969148e8d60b53f8a315ad8b6915f8f31a69885d83f6dd697ff1b0df7a9b9a7b8f04c438811628607cae5937240b01c9080004c8b2f2f569fbc363817c9b7423600191f890abf636b294a130cbb4099fd266db0cab274b294.mp4"
    },
    {
        "title": "蓝环章鱼逃跑主人连夜搬家……",
        "author": "王小怪",
        "thumbnail": "http://videoimg.ws.126.net/cover/20231031/HF0oEpuQU_1stframe.jpg",
        "videoPlayUrl": "http://flv0.bn.netease.com/ea91fdb26fc28cebb9e490967e37096f31aed3dcf868ec5913402ed59bffe62074c136bf55e94d83d92f1668d4aac1f7e18e31efe4b8c21d545923147cdda1580b216fcd0248eeda82bd2e630674ad3384a9858a1f44eddf18680188b5277805cf2b6fc2544b44f360924bbd8aa2337bb4acb707aa769e38.mp4"
    },
    {
        "title": "期末不想写繁多的评语，老师想出了盖章法，网友：原来大家的评语都是一样的！",
        "author": "掌中石家庄",
        "thumbnail": "http://videoimg.ws.126.net/cover/20240110/snegmf4Mk_1stframe.jpg",
        "videoPlayUrl": "http://flv0.bn.netease.com/ea91fdb26fc28ceb20deac28901c2f42085a53ccba1b4b0fe837261b8df7680854e48907e1d337dd7d6d9be8d5f53368ea7bd184874eaf7207525b2e75232ed6628d338890736052578121091c9c00a13daf7414e854fd13cd8f75123843d21cd506b6bfc4a05399159594b623eac82ef4d191d962bed282.mp4"
    },
    {
        "title": "华为P70都快要来了，还抢什么Mate60啊！ ",
        "author": "新人店长A",
        "thumbnail": "http://videoimg.ws.126.net/cover/20240109/v8oUjt7Mg_1stframe.jpg",
        "videoPlayUrl": "http://flv0.bn.netease.com/ea91fdb26fc28ceb09576f28f7a0d3c23656e7930d018c9b53678e7323439c205f18a55a3b8808363438573a2458d89fc33923b590f7096b34c6e941f8418855fe049371d788c5e38da50760ce263722cbac4dbe0e3a5f682e76e6802afcc12ab48c4bd51943c6ed408f74fa7f7520eadc37f5f00c8fc55c.mp4"
    },
    {
        "title": "男孩捡同学不要的鞋 回家给父亲卖鱼穿",
        "author": "薪火视点",
        "thumbnail": "http://videoimg.ws.126.net/cover/20240110/AOFSUL9gh_1stframe.jpg",
        "videoPlayUrl": "http://flv0.bn.netease.com/ea91fdb26fc28ceb6c8f0b3e0fe68f7a83f22ee12a9f5231fefda764dc78a8c2f5e8adf42c82e56219c0706a3d07d78e03e4e570f5e5e11a62c0018c90f5b849967ec0217a6502aff63bc01f8d8b010e367fefffad72bddbaa2f95eb28b1bf0e35ad429d9d4d5e5c2e14f1a19dac000722b9e2128fa03f99.mp4"
    },
    {
        "title": "1月8日，湖南长沙，园方回应男美人鱼爆火出圈：是22岁前古巴花样游泳运动员，表演有力量不失美感",
        "author": "大象新闻",
        "thumbnail": "http://videoimg.ws.126.net/cover/20240109/ahJH1IpgQ_1stframe.jpg",
        "videoPlayUrl": "http://flv0.bn.netease.com/ea91fdb26fc28cebe50ba8feb630dba92ca5c89634f514c3c43768f9b006c9f494247c75ba6b2257496abd201467b1349c3ab4cc65e19bfb362351ca5a22dd9e56a3b46da2bd4c1c6d2e6c08e7880281989398265f9c4a6ec7971370dc3f3ccf47116165390546a48b1c5d1a188ec2122d2a6f5cae241d88.mp4"
    },
    {
        "title": "一群人被个女人反杀",
        "author": "腿毛影视剧",
        "thumbnail": "http://videoimg.ws.126.net/cover/20240106/FDl6LrVge_1stframe.jpg",
        "videoPlayUrl": "http://flv0.bn.netease.com/ea91fdb26fc28cebd0aa2f2c0e1737dde1a2c08544001c448f6d867b9671ac81a1761bb559dff8dc8be0e6cab84144d36513ed2b9300e64e363750737f23e76c1a2bdabcaf7de2ef750725d13b5b1eed891414c52d6211944e631fb22220b158c393f506921132b19cb16e31890acd28c863bbd812ab1a60.mp4"
    },
    {
        "title": "椒盐自制的比卖的还香！30年5星大厨独家秘方0保留分享~ 自制椒盐不论撒在烧烤、炸串上，还是做椒盐花...",
        "author": "范大厨来了",
        "thumbnail": "http://videoimg.ws.126.net/cover/20231119/GkwTjaNcl_1stframe.jpg",
        "videoPlayUrl": "http://flv0.bn.netease.com/ea91fdb26fc28ceb1223b78c4df79398a953b7bdde1ca60e2d423af0aadbb922f0a0a3afa72a658d23dd5be6903c2a45a2fa20d096483dfaf001ab32728d5420c109e1b9830ae0612cad7e263dec683faee8c702667eef23f185c02b51bfdac99583788194120ce45a47dd24573e525fbee33af6ea2ca2ff.mp4"
    }
]